%YAML 1.1
%TAG !u! tag:unity3d.com,2011:
--- !u!29 &1
OcclusionCullingSettings:
  m_ObjectHideFlags: 0
  serializedVersion: 2
  m_OcclusionBakeSettings:
    smallestOccluder: 5
    smallestHole: 0.25
    backfaceThreshold: 100
  m_SceneGUID: 00000000000000000000000000000000
  m_OcclusionCullingData: {fileID: 0}
--- !u!104 &2
RenderSettings:
  m_ObjectHideFlags: 0
  serializedVersion: 9
  m_Fog: 0
  m_FogColor: {r: 0.5, g: 0.5, b: 0.5, a: 1}
  m_FogMode: 3
  m_FogDensity: 0.01
  m_LinearFogStart: 0
  m_LinearFogEnd: 300
  m_AmbientSkyColor: {r: 0.212, g: 0.227, b: 0.259, a: 1}
  m_AmbientEquatorColor: {r: 0.114, g: 0.125, b: 0.133, a: 1}
  m_AmbientGroundColor: {r: 0.047, g: 0.043, b: 0.035, a: 1}
  m_AmbientIntensity: 1
  m_AmbientMode: 3
  m_SubtractiveShadowColor: {r: 0.42, g: 0.478, b: 0.627, a: 1}
  m_SkyboxMaterial: {fileID: 0}
  m_HaloStrength: 0.5
  m_FlareStrength: 1
  m_FlareFadeSpeed: 3
  m_HaloTexture: {fileID: 0}
  m_SpotCookie: {fileID: 10001, guid: 0000000000000000e000000000000000, type: 0}
  m_DefaultReflectionMode: 0
  m_DefaultReflectionResolution: 128
  m_ReflectionBounces: 1
  m_ReflectionIntensity: 1
  m_CustomReflection: {fileID: 0}
  m_Sun: {fileID: 0}
  m_IndirectSpecularColor: {r: 0, g: 0, b: 0, a: 1}
  m_UseRadianceAmbientProbe: 0
--- !u!157 &3
LightmapSettings:
  m_ObjectHideFlags: 0
  serializedVersion: 11
  m_GIWorkflowMode: 1
  m_GISettings:
    serializedVersion: 2
    m_BounceScale: 1
    m_IndirectOutputScale: 1
    m_AlbedoBoost: 1
    m_EnvironmentLightingMode: 0
    m_EnableBakedLightmaps: 0
    m_EnableRealtimeLightmaps: 0
  m_LightmapEditorSettings:
    serializedVersion: 12
    m_Resolution: 2
    m_BakeResolution: 40
    m_AtlasSize: 1024
    m_AO: 0
    m_AOMaxDistance: 1
    m_CompAOExponent: 1
    m_CompAOExponentDirect: 0
    m_ExtractAmbientOcclusion: 0
    m_Padding: 2
    m_LightmapParameters: {fileID: 0}
    m_LightmapsBakeMode: 1
    m_TextureCompression: 1
    m_FinalGather: 0
    m_FinalGatherFiltering: 1
    m_FinalGatherRayCount: 256
    m_ReflectionCompression: 2
    m_MixedBakeMode: 2
    m_BakeBackend: 1
    m_PVRSampling: 1
    m_PVRDirectSampleCount: 32
    m_PVRSampleCount: 512
    m_PVRBounces: 2
    m_PVREnvironmentSampleCount: 256
    m_PVREnvironmentReferencePointCount: 2048
    m_PVRFilteringMode: 1
    m_PVRDenoiserTypeDirect: 1
    m_PVRDenoiserTypeIndirect: 1
    m_PVRDenoiserTypeAO: 1
    m_PVRFilterTypeDirect: 0
    m_PVRFilterTypeIndirect: 0
    m_PVRFilterTypeAO: 0
    m_PVREnvironmentMIS: 1
    m_PVRCulling: 1
    m_PVRFilteringGaussRadiusDirect: 1
    m_PVRFilteringGaussRadiusIndirect: 5
    m_PVRFilteringGaussRadiusAO: 2
    m_PVRFilteringAtrousPositionSigmaDirect: 0.5
    m_PVRFilteringAtrousPositionSigmaIndirect: 2
    m_PVRFilteringAtrousPositionSigmaAO: 1
    m_ExportTrainingData: 0
    m_TrainingDataDestination: TrainingData
  m_LightingDataAsset: {fileID: 0}
  m_UseShadowmask: 1
--- !u!196 &4
NavMeshSettings:
  serializedVersion: 2
  m_ObjectHideFlags: 0
  m_BuildSettings:
    serializedVersion: 2
    agentTypeID: 0
    agentRadius: 0.5
    agentHeight: 2
    agentSlope: 45
    agentClimb: 0.4
    ledgeDropHeight: 0
    maxJumpAcrossDistance: 0
    minRegionArea: 2
    manualCellSize: 0
    cellSize: 0.16666667
    manualTileSize: 0
    tileSize: 256
    accuratePlacement: 0
    debug:
      m_Flags: 0
  m_NavMeshData: {fileID: 0}
--- !u!1 &422133069
GameObject:
  m_ObjectHideFlags: 0
  m_CorrespondingSourceObject: {fileID: 0}
  m_PrefabInstance: {fileID: 0}
  m_PrefabAsset: {fileID: 0}
  serializedVersion: 6
  m_Component:
  - component: {fileID: 422133072}
  - component: {fileID: 422133071}
  - component: {fileID: 422133070}
  m_Layer: 0
  m_Name: Main Camera
  m_TagString: MainCamera
  m_Icon: {fileID: 0}
  m_NavMeshLayer: 0
  m_StaticEditorFlags: 0
  m_IsActive: 1
--- !u!81 &422133070
AudioListener:
  m_ObjectHideFlags: 0
  m_CorrespondingSourceObject: {fileID: 0}
  m_PrefabInstance: {fileID: 0}
  m_PrefabAsset: {fileID: 0}
  m_GameObject: {fileID: 422133069}
  m_Enabled: 1
--- !u!20 &422133071
Camera:
  m_ObjectHideFlags: 0
  m_CorrespondingSourceObject: {fileID: 0}
  m_PrefabInstance: {fileID: 0}
  m_PrefabAsset: {fileID: 0}
  m_GameObject: {fileID: 422133069}
  m_Enabled: 1
  serializedVersion: 2
  m_ClearFlags: 1
  m_BackGroundColor: {r: 0.19215687, g: 0.3019608, b: 0.4745098, a: 0}
  m_projectionMatrixMode: 1
  m_GateFitMode: 2
  m_FOVAxisMode: 0
  m_SensorSize: {x: 36, y: 24}
  m_LensShift: {x: 0, y: 0}
  m_FocalLength: 50
  m_NormalizedViewPortRect:
    serializedVersion: 2
    x: 0
    y: 0
    width: 1
    height: 1
  near clip plane: 0.3
  far clip plane: 1000
  field of view: 60
  orthographic: 1
  orthographic size: 5
  m_Depth: -1
  m_CullingMask:
    serializedVersion: 2
    m_Bits: 4294967295
  m_RenderingPath: -1
  m_TargetTexture: {fileID: 0}
  m_TargetDisplay: 0
  m_TargetEye: 3
  m_HDR: 1
  m_AllowMSAA: 1
  m_AllowDynamicResolution: 0
  m_ForceIntoRT: 0
  m_OcclusionCulling: 1
  m_StereoConvergence: 10
  m_StereoSeparation: 0.022
--- !u!4 &422133072
Transform:
  m_ObjectHideFlags: 0
  m_CorrespondingSourceObject: {fileID: 0}
  m_PrefabInstance: {fileID: 0}
  m_PrefabAsset: {fileID: 0}
  m_GameObject: {fileID: 422133069}
  m_LocalRotation: {x: 0, y: 0, z: 0, w: 1}
  m_LocalPosition: {x: 0, y: 0, z: -1839}
  m_LocalScale: {x: 1, y: 1, z: 1}
  m_Children: []
  m_Father: {fileID: 0}
  m_RootOrder: 0
  m_LocalEulerAnglesHint: {x: 0, y: 0, z: 0}
--- !u!114 &452514959 stripped
MonoBehaviour:
  m_CorrespondingSourceObject: {fileID: 114814921704605479, guid: a52dd0effddcbd14686be2d50b26a7ad,
    type: 3}
  m_PrefabInstance: {fileID: 477981605}
  m_PrefabAsset: {fileID: 0}
  m_GameObject: {fileID: 0}
  m_Enabled: 1
  m_EditorHideFlags: 0
  m_Script: {fileID: 11500000, guid: fe87c0e1cc204ed48ad3b37840f39efc, type: 3}
  m_Name: 
  m_EditorClassIdentifier: 
--- !u!1 &454586561
GameObject:
  m_ObjectHideFlags: 0
  m_CorrespondingSourceObject: {fileID: 0}
  m_PrefabInstance: {fileID: 0}
  m_PrefabAsset: {fileID: 0}
  serializedVersion: 6
  m_Component:
  - component: {fileID: 454586562}
  m_Layer: 0
  m_Name: '----- Assets -----'
  m_TagString: Untagged
  m_Icon: {fileID: 0}
  m_NavMeshLayer: 0
  m_StaticEditorFlags: 0
  m_IsActive: 1
--- !u!4 &454586562
Transform:
  m_ObjectHideFlags: 0
  m_CorrespondingSourceObject: {fileID: 0}
  m_PrefabInstance: {fileID: 0}
  m_PrefabAsset: {fileID: 0}
  m_GameObject: {fileID: 454586561}
  m_LocalRotation: {x: 0, y: 0, z: 0, w: 1}
  m_LocalPosition: {x: -36.055832, y: 314.47705, z: 430.24893}
  m_LocalScale: {x: 1, y: 1, z: 1}
  m_Children: []
  m_Father: {fileID: 0}
  m_RootOrder: 9
  m_LocalEulerAnglesHint: {x: 0, y: 0, z: 0}
--- !u!1001 &477981605
PrefabInstance:
  m_ObjectHideFlags: 0
  serializedVersion: 2
  m_Modification:
    m_TransformParent: {fileID: 0}
    m_Modifications:
    - target: {fileID: 7665321550568267221, guid: a52dd0effddcbd14686be2d50b26a7ad,
        type: 3}
      propertyPath: m_AnchorMin.y
      value: 0
      objectReference: {fileID: 0}
    - target: {fileID: 7665321550568267221, guid: a52dd0effddcbd14686be2d50b26a7ad,
        type: 3}
      propertyPath: m_AnchorMax.y
      value: 0
      objectReference: {fileID: 0}
    - target: {fileID: 7665321550568267221, guid: a52dd0effddcbd14686be2d50b26a7ad,
        type: 3}
      propertyPath: m_AnchoredPosition.x
      value: 0
      objectReference: {fileID: 0}
    - target: {fileID: 7665321550568267221, guid: a52dd0effddcbd14686be2d50b26a7ad,
        type: 3}
      propertyPath: m_AnchoredPosition.y
      value: 0
      objectReference: {fileID: 0}
    - target: {fileID: 7665321550568267221, guid: a52dd0effddcbd14686be2d50b26a7ad,
        type: 3}
      propertyPath: m_SizeDelta.x
      value: 0
      objectReference: {fileID: 0}
    - target: {fileID: 1012483873978242357, guid: a52dd0effddcbd14686be2d50b26a7ad,
        type: 3}
      propertyPath: m_AnchorMin.y
      value: 0
      objectReference: {fileID: 0}
    - target: {fileID: 1012483873978242357, guid: a52dd0effddcbd14686be2d50b26a7ad,
        type: 3}
      propertyPath: m_AnchorMax.y
      value: 0
      objectReference: {fileID: 0}
    - target: {fileID: 1012483873978242357, guid: a52dd0effddcbd14686be2d50b26a7ad,
        type: 3}
      propertyPath: m_AnchoredPosition.x
      value: 0
      objectReference: {fileID: 0}
    - target: {fileID: 1012483873978242357, guid: a52dd0effddcbd14686be2d50b26a7ad,
        type: 3}
      propertyPath: m_AnchoredPosition.y
      value: 0
      objectReference: {fileID: 0}
    - target: {fileID: 1012483873978242357, guid: a52dd0effddcbd14686be2d50b26a7ad,
        type: 3}
      propertyPath: m_SizeDelta.x
      value: 0
      objectReference: {fileID: 0}
    - target: {fileID: 5257199236443935856, guid: a52dd0effddcbd14686be2d50b26a7ad,
        type: 3}
      propertyPath: m_AnchorMin.y
      value: 0
      objectReference: {fileID: 0}
    - target: {fileID: 5257199236443935856, guid: a52dd0effddcbd14686be2d50b26a7ad,
        type: 3}
      propertyPath: m_AnchorMax.y
      value: 0
      objectReference: {fileID: 0}
    - target: {fileID: 5257199236443935856, guid: a52dd0effddcbd14686be2d50b26a7ad,
        type: 3}
      propertyPath: m_AnchoredPosition.x
      value: 0
      objectReference: {fileID: 0}
    - target: {fileID: 5257199236443935856, guid: a52dd0effddcbd14686be2d50b26a7ad,
        type: 3}
      propertyPath: m_AnchoredPosition.y
      value: 0
      objectReference: {fileID: 0}
    - target: {fileID: 5257199236443935856, guid: a52dd0effddcbd14686be2d50b26a7ad,
        type: 3}
      propertyPath: m_SizeDelta.x
      value: 0
      objectReference: {fileID: 0}
    - target: {fileID: 2023605280574135211, guid: a52dd0effddcbd14686be2d50b26a7ad,
        type: 3}
      propertyPath: m_AnchorMin.y
      value: 0
      objectReference: {fileID: 0}
    - target: {fileID: 2023605280574135211, guid: a52dd0effddcbd14686be2d50b26a7ad,
        type: 3}
      propertyPath: m_AnchorMax.y
      value: 0
      objectReference: {fileID: 0}
    - target: {fileID: 2023605280574135211, guid: a52dd0effddcbd14686be2d50b26a7ad,
        type: 3}
      propertyPath: m_AnchoredPosition.x
      value: 0
      objectReference: {fileID: 0}
    - target: {fileID: 2023605280574135211, guid: a52dd0effddcbd14686be2d50b26a7ad,
        type: 3}
      propertyPath: m_AnchoredPosition.y
      value: 0
      objectReference: {fileID: 0}
    - target: {fileID: 2023605280574135211, guid: a52dd0effddcbd14686be2d50b26a7ad,
        type: 3}
      propertyPath: m_SizeDelta.x
      value: 0
      objectReference: {fileID: 0}
    - target: {fileID: 6985782851415180655, guid: a52dd0effddcbd14686be2d50b26a7ad,
        type: 3}
      propertyPath: m_AnchorMin.y
      value: 0
      objectReference: {fileID: 0}
    - target: {fileID: 6985782851415180655, guid: a52dd0effddcbd14686be2d50b26a7ad,
        type: 3}
      propertyPath: m_AnchorMax.y
      value: 0
      objectReference: {fileID: 0}
    - target: {fileID: 6985782851415180655, guid: a52dd0effddcbd14686be2d50b26a7ad,
        type: 3}
      propertyPath: m_AnchoredPosition.x
      value: 0
      objectReference: {fileID: 0}
    - target: {fileID: 6985782851415180655, guid: a52dd0effddcbd14686be2d50b26a7ad,
        type: 3}
      propertyPath: m_AnchoredPosition.y
      value: 0
      objectReference: {fileID: 0}
    - target: {fileID: 6985782851415180655, guid: a52dd0effddcbd14686be2d50b26a7ad,
        type: 3}
      propertyPath: m_SizeDelta.x
      value: 0
      objectReference: {fileID: 0}
    - target: {fileID: 7873609230010428193, guid: a52dd0effddcbd14686be2d50b26a7ad,
        type: 3}
      propertyPath: m_AnchorMin.y
      value: 0
      objectReference: {fileID: 0}
    - target: {fileID: 7873609230010428193, guid: a52dd0effddcbd14686be2d50b26a7ad,
        type: 3}
      propertyPath: m_AnchorMax.y
      value: 0
      objectReference: {fileID: 0}
    - target: {fileID: 7873609230010428193, guid: a52dd0effddcbd14686be2d50b26a7ad,
        type: 3}
      propertyPath: m_AnchoredPosition.x
      value: 0
      objectReference: {fileID: 0}
    - target: {fileID: 7873609230010428193, guid: a52dd0effddcbd14686be2d50b26a7ad,
        type: 3}
      propertyPath: m_AnchoredPosition.y
      value: 0
      objectReference: {fileID: 0}
    - target: {fileID: 7873609230010428193, guid: a52dd0effddcbd14686be2d50b26a7ad,
        type: 3}
      propertyPath: m_SizeDelta.x
      value: 0
      objectReference: {fileID: 0}
    - target: {fileID: 1744999219573256341, guid: a52dd0effddcbd14686be2d50b26a7ad,
        type: 3}
      propertyPath: m_AnchorMin.y
      value: 0
      objectReference: {fileID: 0}
    - target: {fileID: 1744999219573256341, guid: a52dd0effddcbd14686be2d50b26a7ad,
        type: 3}
      propertyPath: m_AnchorMax.y
      value: 0
      objectReference: {fileID: 0}
    - target: {fileID: 1744999219573256341, guid: a52dd0effddcbd14686be2d50b26a7ad,
        type: 3}
      propertyPath: m_AnchoredPosition.x
      value: 0
      objectReference: {fileID: 0}
    - target: {fileID: 1744999219573256341, guid: a52dd0effddcbd14686be2d50b26a7ad,
        type: 3}
      propertyPath: m_AnchoredPosition.y
      value: 0
      objectReference: {fileID: 0}
    - target: {fileID: 1744999219573256341, guid: a52dd0effddcbd14686be2d50b26a7ad,
        type: 3}
      propertyPath: m_SizeDelta.x
      value: 0
      objectReference: {fileID: 0}
    - target: {fileID: 4923478432050374642, guid: a52dd0effddcbd14686be2d50b26a7ad,
        type: 3}
      propertyPath: m_AnchorMin.y
      value: 0
      objectReference: {fileID: 0}
    - target: {fileID: 4923478432050374642, guid: a52dd0effddcbd14686be2d50b26a7ad,
        type: 3}
      propertyPath: m_AnchorMax.y
      value: 0
      objectReference: {fileID: 0}
    - target: {fileID: 4923478432050374642, guid: a52dd0effddcbd14686be2d50b26a7ad,
        type: 3}
      propertyPath: m_AnchoredPosition.x
      value: 0
      objectReference: {fileID: 0}
    - target: {fileID: 4923478432050374642, guid: a52dd0effddcbd14686be2d50b26a7ad,
        type: 3}
      propertyPath: m_AnchoredPosition.y
      value: 0
      objectReference: {fileID: 0}
    - target: {fileID: 4923478432050374642, guid: a52dd0effddcbd14686be2d50b26a7ad,
        type: 3}
      propertyPath: m_SizeDelta.x
      value: 0
      objectReference: {fileID: 0}
    - target: {fileID: 9147142319094398763, guid: a52dd0effddcbd14686be2d50b26a7ad,
        type: 3}
      propertyPath: m_AnchorMin.y
      value: 0
      objectReference: {fileID: 0}
    - target: {fileID: 9147142319094398763, guid: a52dd0effddcbd14686be2d50b26a7ad,
        type: 3}
      propertyPath: m_AnchorMax.y
      value: 0
      objectReference: {fileID: 0}
    - target: {fileID: 9147142319094398763, guid: a52dd0effddcbd14686be2d50b26a7ad,
        type: 3}
      propertyPath: m_AnchoredPosition.x
      value: 0
      objectReference: {fileID: 0}
    - target: {fileID: 9147142319094398763, guid: a52dd0effddcbd14686be2d50b26a7ad,
        type: 3}
      propertyPath: m_AnchoredPosition.y
      value: 0
      objectReference: {fileID: 0}
    - target: {fileID: 9147142319094398763, guid: a52dd0effddcbd14686be2d50b26a7ad,
        type: 3}
      propertyPath: m_SizeDelta.x
      value: 0
      objectReference: {fileID: 0}
    - target: {fileID: 8319825045862035200, guid: a52dd0effddcbd14686be2d50b26a7ad,
        type: 3}
      propertyPath: m_AnchorMin.y
      value: 0
      objectReference: {fileID: 0}
    - target: {fileID: 8319825045862035200, guid: a52dd0effddcbd14686be2d50b26a7ad,
        type: 3}
      propertyPath: m_AnchorMax.y
      value: 0
      objectReference: {fileID: 0}
    - target: {fileID: 8319825045862035200, guid: a52dd0effddcbd14686be2d50b26a7ad,
        type: 3}
      propertyPath: m_AnchoredPosition.x
      value: 0
      objectReference: {fileID: 0}
    - target: {fileID: 8319825045862035200, guid: a52dd0effddcbd14686be2d50b26a7ad,
        type: 3}
      propertyPath: m_AnchoredPosition.y
      value: 0
      objectReference: {fileID: 0}
    - target: {fileID: 8319825045862035200, guid: a52dd0effddcbd14686be2d50b26a7ad,
        type: 3}
      propertyPath: m_SizeDelta.x
      value: 0
      objectReference: {fileID: 0}
    - target: {fileID: 1097661554544174674, guid: a52dd0effddcbd14686be2d50b26a7ad,
        type: 3}
      propertyPath: m_Name
      value: MainLoadingCanvas
      objectReference: {fileID: 0}
    - target: {fileID: 1097661554544174674, guid: a52dd0effddcbd14686be2d50b26a7ad,
        type: 3}
      propertyPath: m_IsActive
      value: 1
      objectReference: {fileID: 0}
    - target: {fileID: 1974486567640725417, guid: a52dd0effddcbd14686be2d50b26a7ad,
        type: 3}
      propertyPath: m_LocalPosition.x
      value: 0
      objectReference: {fileID: 0}
    - target: {fileID: 1974486567640725417, guid: a52dd0effddcbd14686be2d50b26a7ad,
        type: 3}
      propertyPath: m_LocalPosition.y
      value: 0
      objectReference: {fileID: 0}
    - target: {fileID: 1974486567640725417, guid: a52dd0effddcbd14686be2d50b26a7ad,
        type: 3}
      propertyPath: m_LocalPosition.z
      value: 0
      objectReference: {fileID: 0}
    - target: {fileID: 1974486567640725417, guid: a52dd0effddcbd14686be2d50b26a7ad,
        type: 3}
      propertyPath: m_LocalRotation.x
      value: 0
      objectReference: {fileID: 0}
    - target: {fileID: 1974486567640725417, guid: a52dd0effddcbd14686be2d50b26a7ad,
        type: 3}
      propertyPath: m_LocalRotation.y
      value: 0
      objectReference: {fileID: 0}
    - target: {fileID: 1974486567640725417, guid: a52dd0effddcbd14686be2d50b26a7ad,
        type: 3}
      propertyPath: m_LocalRotation.z
      value: 0
      objectReference: {fileID: 0}
    - target: {fileID: 1974486567640725417, guid: a52dd0effddcbd14686be2d50b26a7ad,
        type: 3}
      propertyPath: m_LocalRotation.w
      value: 1
      objectReference: {fileID: 0}
    - target: {fileID: 1974486567640725417, guid: a52dd0effddcbd14686be2d50b26a7ad,
        type: 3}
      propertyPath: m_RootOrder
      value: 8
      objectReference: {fileID: 0}
    - target: {fileID: 1974486567640725417, guid: a52dd0effddcbd14686be2d50b26a7ad,
        type: 3}
      propertyPath: m_LocalEulerAnglesHint.x
      value: 0
      objectReference: {fileID: 0}
    - target: {fileID: 1974486567640725417, guid: a52dd0effddcbd14686be2d50b26a7ad,
        type: 3}
      propertyPath: m_LocalEulerAnglesHint.y
      value: 0
      objectReference: {fileID: 0}
    - target: {fileID: 1974486567640725417, guid: a52dd0effddcbd14686be2d50b26a7ad,
        type: 3}
      propertyPath: m_LocalEulerAnglesHint.z
      value: 0
      objectReference: {fileID: 0}
    - target: {fileID: 1974486567640725417, guid: a52dd0effddcbd14686be2d50b26a7ad,
        type: 3}
      propertyPath: m_AnchoredPosition.x
      value: 0
      objectReference: {fileID: 0}
    - target: {fileID: 1974486567640725417, guid: a52dd0effddcbd14686be2d50b26a7ad,
        type: 3}
      propertyPath: m_AnchoredPosition.y
      value: 0
      objectReference: {fileID: 0}
    - target: {fileID: 1974486567640725417, guid: a52dd0effddcbd14686be2d50b26a7ad,
        type: 3}
      propertyPath: m_SizeDelta.x
      value: 0
      objectReference: {fileID: 0}
    - target: {fileID: 1974486567640725417, guid: a52dd0effddcbd14686be2d50b26a7ad,
        type: 3}
      propertyPath: m_SizeDelta.y
      value: 0
      objectReference: {fileID: 0}
    - target: {fileID: 1974486567640725417, guid: a52dd0effddcbd14686be2d50b26a7ad,
        type: 3}
      propertyPath: m_AnchorMin.x
      value: 0
      objectReference: {fileID: 0}
    - target: {fileID: 1974486567640725417, guid: a52dd0effddcbd14686be2d50b26a7ad,
        type: 3}
      propertyPath: m_AnchorMin.y
      value: 0
      objectReference: {fileID: 0}
    - target: {fileID: 1974486567640725417, guid: a52dd0effddcbd14686be2d50b26a7ad,
        type: 3}
      propertyPath: m_AnchorMax.x
      value: 0
      objectReference: {fileID: 0}
    - target: {fileID: 1974486567640725417, guid: a52dd0effddcbd14686be2d50b26a7ad,
        type: 3}
      propertyPath: m_AnchorMax.y
      value: 0
      objectReference: {fileID: 0}
    - target: {fileID: 1974486567640725417, guid: a52dd0effddcbd14686be2d50b26a7ad,
        type: 3}
      propertyPath: m_Pivot.x
      value: 0
      objectReference: {fileID: 0}
    - target: {fileID: 1974486567640725417, guid: a52dd0effddcbd14686be2d50b26a7ad,
        type: 3}
      propertyPath: m_Pivot.y
      value: 0
      objectReference: {fileID: 0}
    - target: {fileID: 356578532209656973, guid: a52dd0effddcbd14686be2d50b26a7ad,
        type: 3}
      propertyPath: progressBar.Array.size
      value: 10
      objectReference: {fileID: 0}
    - target: {fileID: 356578532209656973, guid: a52dd0effddcbd14686be2d50b26a7ad,
        type: 3}
      propertyPath: progressBar.Array.data[0]
      value: 
      objectReference: {fileID: 1054722222}
    - target: {fileID: 356578532209656973, guid: a52dd0effddcbd14686be2d50b26a7ad,
        type: 3}
      propertyPath: progressBar.Array.data[1]
      value: 
      objectReference: {fileID: 2073660676}
    - target: {fileID: 356578532209656973, guid: a52dd0effddcbd14686be2d50b26a7ad,
        type: 3}
      propertyPath: progressBar.Array.data[2]
      value: 
      objectReference: {fileID: 452514959}
    - target: {fileID: 356578532209656973, guid: a52dd0effddcbd14686be2d50b26a7ad,
        type: 3}
      propertyPath: progressBar.Array.data[3]
      value: 
      objectReference: {fileID: 1778973542}
    - target: {fileID: 356578532209656973, guid: a52dd0effddcbd14686be2d50b26a7ad,
        type: 3}
      propertyPath: progressBar.Array.data[4]
      value: 
      objectReference: {fileID: 628585058}
    - target: {fileID: 356578532209656973, guid: a52dd0effddcbd14686be2d50b26a7ad,
        type: 3}
      propertyPath: progressBar.Array.data[5]
      value: 
      objectReference: {fileID: 1021149553}
    - target: {fileID: 356578532209656973, guid: a52dd0effddcbd14686be2d50b26a7ad,
        type: 3}
      propertyPath: progressBar.Array.data[6]
      value: 
      objectReference: {fileID: 1571913345}
    - target: {fileID: 356578532209656973, guid: a52dd0effddcbd14686be2d50b26a7ad,
        type: 3}
      propertyPath: progressBar.Array.data[7]
      value: 
      objectReference: {fileID: 2056374353}
    - target: {fileID: 356578532209656973, guid: a52dd0effddcbd14686be2d50b26a7ad,
        type: 3}
      propertyPath: progressBar.Array.data[8]
      value: 
      objectReference: {fileID: 1131442554}
    - target: {fileID: 356578532209656973, guid: a52dd0effddcbd14686be2d50b26a7ad,
        type: 3}
      propertyPath: progressBar.Array.data[9]
      value: 
      objectReference: {fileID: 2139945842}
    - target: {fileID: 356578532209656973, guid: a52dd0effddcbd14686be2d50b26a7ad,
        type: 3}
      propertyPath: loadingIcon
      value: 
      objectReference: {fileID: 21300000, guid: cc84f50365ed9fb48addf42acd0b573b,
        type: 3}
    - target: {fileID: 356578532209656973, guid: a52dd0effddcbd14686be2d50b26a7ad,
        type: 3}
      propertyPath: loadingDoneIcon
      value: 
      objectReference: {fileID: 21300000, guid: b4535320375ab734a9a9133670c5887b,
        type: 3}
    - target: {fileID: 356578532209656973, guid: a52dd0effddcbd14686be2d50b26a7ad,
        type: 3}
      propertyPath: fadeDuration
      value: 0.25
      objectReference: {fileID: 0}
    - target: {fileID: 356578532209656973, guid: a52dd0effddcbd14686be2d50b26a7ad,
        type: 3}
      propertyPath: loadingCanvasBackground
      value: 
      objectReference: {fileID: 21300000, guid: 4cf094efc3b09be4ba46535421fc9920,
        type: 3}
    - target: {fileID: 8448929569187370468, guid: a52dd0effddcbd14686be2d50b26a7ad,
        type: 3}
      propertyPath: m_AnchorMin.x
      value: 0
      objectReference: {fileID: 0}
    - target: {fileID: 8448929569187370468, guid: a52dd0effddcbd14686be2d50b26a7ad,
        type: 3}
      propertyPath: m_AnchorMax.x
      value: 1
      objectReference: {fileID: 0}
    - target: {fileID: 8448929569187370468, guid: a52dd0effddcbd14686be2d50b26a7ad,
        type: 3}
      propertyPath: m_SizeDelta.x
      value: 0
      objectReference: {fileID: 0}
    - target: {fileID: 8448929569187370468, guid: a52dd0effddcbd14686be2d50b26a7ad,
        type: 3}
      propertyPath: m_AnchoredPosition.x
      value: 0
      objectReference: {fileID: 0}
    - target: {fileID: 8448929569187370468, guid: a52dd0effddcbd14686be2d50b26a7ad,
        type: 3}
      propertyPath: m_AnchoredPosition.y
      value: 50
      objectReference: {fileID: 0}
    - target: {fileID: 8448929569187370468, guid: a52dd0effddcbd14686be2d50b26a7ad,
        type: 3}
      propertyPath: m_AnchorMin.y
      value: 0
      objectReference: {fileID: 0}
    - target: {fileID: 8448929569187370468, guid: a52dd0effddcbd14686be2d50b26a7ad,
        type: 3}
      propertyPath: m_AnchorMax.y
      value: 0
      objectReference: {fileID: 0}
    - target: {fileID: 2992081846891925122, guid: a52dd0effddcbd14686be2d50b26a7ad,
        type: 3}
      propertyPath: m_Sprite
      value: 
      objectReference: {fileID: 21300000, guid: 58c27a250ecc106458a35dca93a77672,
        type: 3}
    - target: {fileID: 2992081846891925122, guid: a52dd0effddcbd14686be2d50b26a7ad,
        type: 3}
      propertyPath: m_RaycastTarget
      value: 1
      objectReference: {fileID: 0}
    - target: {fileID: 566386687512750454, guid: a52dd0effddcbd14686be2d50b26a7ad,
        type: 3}
      propertyPath: m_IsActive
      value: 1
      objectReference: {fileID: 0}
    - target: {fileID: 6598963906946942616, guid: a52dd0effddcbd14686be2d50b26a7ad,
        type: 3}
      propertyPath: m_IsActive
      value: 0
      objectReference: {fileID: 0}
    - target: {fileID: 2783805268618071082, guid: a52dd0effddcbd14686be2d50b26a7ad,
        type: 3}
      propertyPath: m_LocalScale.x
      value: 5
      objectReference: {fileID: 0}
    - target: {fileID: 2783805268618071082, guid: a52dd0effddcbd14686be2d50b26a7ad,
        type: 3}
      propertyPath: m_LocalScale.y
      value: 5
      objectReference: {fileID: 0}
    - target: {fileID: 2783805268618071082, guid: a52dd0effddcbd14686be2d50b26a7ad,
        type: 3}
      propertyPath: m_LocalScale.z
      value: 5
      objectReference: {fileID: 0}
    m_RemovedComponents: []
  m_SourcePrefab: {fileID: 100100000, guid: a52dd0effddcbd14686be2d50b26a7ad, type: 3}
--- !u!114 &628585058 stripped
MonoBehaviour:
  m_CorrespondingSourceObject: {fileID: 8887799597938420173, guid: a52dd0effddcbd14686be2d50b26a7ad,
    type: 3}
  m_PrefabInstance: {fileID: 477981605}
  m_PrefabAsset: {fileID: 0}
  m_GameObject: {fileID: 0}
  m_Enabled: 1
  m_EditorHideFlags: 0
  m_Script: {fileID: 11500000, guid: fe87c0e1cc204ed48ad3b37840f39efc, type: 3}
  m_Name: 
  m_EditorClassIdentifier: 
--- !u!1 &873686447
GameObject:
  m_ObjectHideFlags: 0
  m_CorrespondingSourceObject: {fileID: 0}
  m_PrefabInstance: {fileID: 0}
  m_PrefabAsset: {fileID: 0}
  serializedVersion: 6
  m_Component:
  - component: {fileID: 873686448}
  m_Layer: 0
  m_Name: '-----UI-----'
  m_TagString: Untagged
  m_Icon: {fileID: 0}
  m_NavMeshLayer: 0
  m_StaticEditorFlags: 0
  m_IsActive: 1
--- !u!4 &873686448
Transform:
  m_ObjectHideFlags: 0
  m_CorrespondingSourceObject: {fileID: 0}
  m_PrefabInstance: {fileID: 0}
  m_PrefabAsset: {fileID: 0}
  m_GameObject: {fileID: 873686447}
  m_LocalRotation: {x: 0, y: 0, z: 0, w: 1}
  m_LocalPosition: {x: -36.055832, y: 314.47705, z: 430.24893}
  m_LocalScale: {x: 1, y: 1, z: 1}
  m_Children: []
  m_Father: {fileID: 0}
  m_RootOrder: 6
  m_LocalEulerAnglesHint: {x: 0, y: 0, z: 0}
--- !u!1 &1010353781
GameObject:
  m_ObjectHideFlags: 0
  m_CorrespondingSourceObject: {fileID: 0}
  m_PrefabInstance: {fileID: 0}
  m_PrefabAsset: {fileID: 0}
  serializedVersion: 6
  m_Component:
  - component: {fileID: 1010353784}
  - component: {fileID: 1010353783}
  - component: {fileID: 1010353782}
  m_Layer: 0
  m_Name: EventSystem
  m_TagString: Untagged
  m_Icon: {fileID: 0}
  m_NavMeshLayer: 0
  m_StaticEditorFlags: 0
  m_IsActive: 1
--- !u!114 &1010353782
MonoBehaviour:
  m_ObjectHideFlags: 0
  m_CorrespondingSourceObject: {fileID: 0}
  m_PrefabInstance: {fileID: 0}
  m_PrefabAsset: {fileID: 0}
  m_GameObject: {fileID: 1010353781}
  m_Enabled: 1
  m_EditorHideFlags: 0
  m_Script: {fileID: 11500000, guid: 4f231c4fb786f3946a6b90b886c48677, type: 3}
  m_Name: 
  m_EditorClassIdentifier: 
  m_HorizontalAxis: Horizontal
  m_VerticalAxis: Vertical
  m_SubmitButton: Submit
  m_CancelButton: Cancel
  m_InputActionsPerSecond: 10
  m_RepeatDelay: 0.5
  m_ForceModuleActive: 0
--- !u!114 &1010353783
MonoBehaviour:
  m_ObjectHideFlags: 0
  m_CorrespondingSourceObject: {fileID: 0}
  m_PrefabInstance: {fileID: 0}
  m_PrefabAsset: {fileID: 0}
  m_GameObject: {fileID: 1010353781}
  m_Enabled: 1
  m_EditorHideFlags: 0
  m_Script: {fileID: 11500000, guid: 76c392e42b5098c458856cdf6ecaaaa1, type: 3}
  m_Name: 
  m_EditorClassIdentifier: 
  m_FirstSelected: {fileID: 0}
  m_sendNavigationEvents: 1
  m_DragThreshold: 10
--- !u!4 &1010353784
Transform:
  m_ObjectHideFlags: 0
  m_CorrespondingSourceObject: {fileID: 0}
  m_PrefabInstance: {fileID: 0}
  m_PrefabAsset: {fileID: 0}
  m_GameObject: {fileID: 1010353781}
  m_LocalRotation: {x: 0, y: 0, z: 0, w: 1}
  m_LocalPosition: {x: 0, y: 0, z: 0}
  m_LocalScale: {x: 1, y: 1, z: 1}
  m_Children: []
  m_Father: {fileID: 0}
  m_RootOrder: 1
  m_LocalEulerAnglesHint: {x: 0, y: 0, z: 0}
--- !u!114 &1021149553 stripped
MonoBehaviour:
  m_CorrespondingSourceObject: {fileID: 5868817697945417894, guid: a52dd0effddcbd14686be2d50b26a7ad,
    type: 3}
  m_PrefabInstance: {fileID: 477981605}
  m_PrefabAsset: {fileID: 0}
  m_GameObject: {fileID: 0}
  m_Enabled: 1
  m_EditorHideFlags: 0
  m_Script: {fileID: 11500000, guid: fe87c0e1cc204ed48ad3b37840f39efc, type: 3}
  m_Name: 
  m_EditorClassIdentifier: 
--- !u!114 &1054722222 stripped
MonoBehaviour:
  m_CorrespondingSourceObject: {fileID: 1729137759891453297, guid: a52dd0effddcbd14686be2d50b26a7ad,
    type: 3}
  m_PrefabInstance: {fileID: 477981605}
  m_PrefabAsset: {fileID: 0}
  m_GameObject: {fileID: 0}
  m_Enabled: 1
  m_EditorHideFlags: 0
  m_Script: {fileID: 11500000, guid: fe87c0e1cc204ed48ad3b37840f39efc, type: 3}
  m_Name: 
  m_EditorClassIdentifier: 
--- !u!114 &1131442554 stripped
MonoBehaviour:
  m_CorrespondingSourceObject: {fileID: 332260960631451982, guid: a52dd0effddcbd14686be2d50b26a7ad,
    type: 3}
  m_PrefabInstance: {fileID: 477981605}
  m_PrefabAsset: {fileID: 0}
  m_GameObject: {fileID: 0}
  m_Enabled: 1
  m_EditorHideFlags: 0
  m_Script: {fileID: 11500000, guid: fe87c0e1cc204ed48ad3b37840f39efc, type: 3}
  m_Name: 
  m_EditorClassIdentifier: 
--- !u!1 &1258423101 stripped
GameObject:
  m_CorrespondingSourceObject: {fileID: 2172206292787832429, guid: e4bb38044b8b6bf46b13621e0de119ba,
    type: 3}
  m_PrefabInstance: {fileID: 1954230760}
  m_PrefabAsset: {fileID: 0}
--- !u!95 &1258423105
Animator:
  serializedVersion: 3
  m_ObjectHideFlags: 0
  m_CorrespondingSourceObject: {fileID: 0}
  m_PrefabInstance: {fileID: 0}
  m_PrefabAsset: {fileID: 0}
  m_GameObject: {fileID: 1258423101}
  m_Enabled: 1
  m_Avatar: {fileID: 0}
  m_Controller: {fileID: 9100000, guid: 9500911d06ace35439cdd260d10a8915, type: 2}
  m_CullingMode: 0
  m_UpdateMode: 0
  m_ApplyRootMotion: 0
  m_LinearVelocityBlending: 0
  m_WarningMessage: 
  m_HasTransformHierarchy: 1
  m_AllowConstantClipSamplingOptimization: 1
  m_KeepAnimatorControllerStateOnDisable: 0
--- !u!114 &1571913345 stripped
MonoBehaviour:
  m_CorrespondingSourceObject: {fileID: 1791805237167501677, guid: a52dd0effddcbd14686be2d50b26a7ad,
    type: 3}
  m_PrefabInstance: {fileID: 477981605}
  m_PrefabAsset: {fileID: 0}
  m_GameObject: {fileID: 0}
  m_Enabled: 1
  m_EditorHideFlags: 0
  m_Script: {fileID: 11500000, guid: fe87c0e1cc204ed48ad3b37840f39efc, type: 3}
  m_Name: 
  m_EditorClassIdentifier: 
--- !u!1 &1776319305
GameObject:
  m_ObjectHideFlags: 0
  m_CorrespondingSourceObject: {fileID: 0}
  m_PrefabInstance: {fileID: 0}
  m_PrefabAsset: {fileID: 0}
  serializedVersion: 6
  m_Component:
  - component: {fileID: 1776319306}
  m_Layer: 0
  m_Name: '----- System -----'
  m_TagString: Untagged
  m_Icon: {fileID: 0}
  m_NavMeshLayer: 0
  m_StaticEditorFlags: 0
  m_IsActive: 1
--- !u!4 &1776319306
Transform:
  m_ObjectHideFlags: 0
  m_CorrespondingSourceObject: {fileID: 0}
  m_PrefabInstance: {fileID: 0}
  m_PrefabAsset: {fileID: 0}
  m_GameObject: {fileID: 1776319305}
  m_LocalRotation: {x: 0, y: 0, z: 0, w: 1}
  m_LocalPosition: {x: -36.055832, y: 314.47705, z: 430.24893}
  m_LocalScale: {x: 1, y: 1, z: 1}
  m_Children: []
  m_Father: {fileID: 0}
  m_RootOrder: 2
  m_LocalEulerAnglesHint: {x: 0, y: 0, z: 0}
--- !u!114 &1778973542 stripped
MonoBehaviour:
  m_CorrespondingSourceObject: {fileID: 1118727807584774078, guid: a52dd0effddcbd14686be2d50b26a7ad,
    type: 3}
  m_PrefabInstance: {fileID: 477981605}
  m_PrefabAsset: {fileID: 0}
  m_GameObject: {fileID: 0}
  m_Enabled: 1
  m_EditorHideFlags: 0
  m_Script: {fileID: 11500000, guid: fe87c0e1cc204ed48ad3b37840f39efc, type: 3}
  m_Name: 
  m_EditorClassIdentifier: 
--- !u!1 &1950669276 stripped
GameObject:
  m_CorrespondingSourceObject: {fileID: 2640826557134196920, guid: e4bb38044b8b6bf46b13621e0de119ba,
    type: 3}
  m_PrefabInstance: {fileID: 1954230760}
  m_PrefabAsset: {fileID: 0}
--- !u!95 &1950669278
Animator:
  serializedVersion: 3
  m_ObjectHideFlags: 0
  m_CorrespondingSourceObject: {fileID: 0}
  m_PrefabInstance: {fileID: 0}
  m_PrefabAsset: {fileID: 0}
  m_GameObject: {fileID: 1950669276}
  m_Enabled: 1
  m_Avatar: {fileID: 0}
  m_Controller: {fileID: 9100000, guid: d09d73fed2cd6054caa2ecc4a0a0f510, type: 2}
  m_CullingMode: 0
  m_UpdateMode: 0
  m_ApplyRootMotion: 0
  m_LinearVelocityBlending: 0
  m_WarningMessage: 
  m_HasTransformHierarchy: 1
  m_AllowConstantClipSamplingOptimization: 1
  m_KeepAnimatorControllerStateOnDisable: 0
--- !u!212 &1950669280
SpriteRenderer:
  m_ObjectHideFlags: 0
  m_CorrespondingSourceObject: {fileID: 0}
  m_PrefabInstance: {fileID: 0}
  m_PrefabAsset: {fileID: 0}
  m_GameObject: {fileID: 1950669276}
  m_Enabled: 1
  m_CastShadows: 0
  m_ReceiveShadows: 0
  m_DynamicOccludee: 1
  m_MotionVectors: 1
  m_LightProbeUsage: 1
  m_ReflectionProbeUsage: 1
  m_RenderingLayerMask: 1
  m_RendererPriority: 0
  m_Materials:
  - {fileID: 10754, guid: 0000000000000000f000000000000000, type: 0}
  m_StaticBatchInfo:
    firstSubMesh: 0
    subMeshCount: 0
  m_StaticBatchRoot: {fileID: 0}
  m_ProbeAnchor: {fileID: 0}
  m_LightProbeVolumeOverride: {fileID: 0}
  m_ScaleInLightmap: 1
  m_ReceiveGI: 1
  m_PreserveUVs: 0
  m_IgnoreNormalsForChartDetection: 0
  m_ImportantGI: 0
  m_StitchLightmapSeams: 1
  m_SelectedEditorRenderState: 0
  m_MinimumChartSize: 4
  m_AutoUVMaxDistance: 0.5
  m_AutoUVMaxAngle: 89
  m_LightmapParameters: {fileID: 0}
  m_SortingLayerID: 0
  m_SortingLayer: 0
  m_SortingOrder: 0
  m_Sprite: {fileID: 0}
  m_Color: {r: 1, g: 1, b: 1, a: 1}
  m_FlipX: 0
  m_FlipY: 0
  m_DrawMode: 0
  m_Size: {x: 2, y: 1}
  m_AdaptiveModeThreshold: 0.5
  m_SpriteTileMode: 0
  m_WasSpriteAssigned: 0
  m_MaskInteraction: 0
  m_SpriteSortPoint: 0
--- !u!1001 &1954230760
PrefabInstance:
  m_ObjectHideFlags: 0
  serializedVersion: 2
  m_Modification:
    m_TransformParent: {fileID: 0}
    m_Modifications:
    - target: {fileID: 3051699880010063778, guid: e4bb38044b8b6bf46b13621e0de119ba,
        type: 3}
      propertyPath: m_Name
      value: ScreenFader
      objectReference: {fileID: 0}
    - target: {fileID: 2640826557134196920, guid: e4bb38044b8b6bf46b13621e0de119ba,
        type: 3}
      propertyPath: m_IsActive
      value: 0
      objectReference: {fileID: 0}
    - target: {fileID: 7801416407409321203, guid: e4bb38044b8b6bf46b13621e0de119ba,
        type: 3}
      propertyPath: m_LocalPosition.x
      value: 0
      objectReference: {fileID: 0}
    - target: {fileID: 7801416407409321203, guid: e4bb38044b8b6bf46b13621e0de119ba,
        type: 3}
      propertyPath: m_LocalPosition.y
      value: 0
      objectReference: {fileID: 0}
    - target: {fileID: 7801416407409321203, guid: e4bb38044b8b6bf46b13621e0de119ba,
        type: 3}
      propertyPath: m_LocalPosition.z
      value: 0
      objectReference: {fileID: 0}
    - target: {fileID: 7801416407409321203, guid: e4bb38044b8b6bf46b13621e0de119ba,
        type: 3}
      propertyPath: m_LocalRotation.x
      value: -0
      objectReference: {fileID: 0}
    - target: {fileID: 7801416407409321203, guid: e4bb38044b8b6bf46b13621e0de119ba,
        type: 3}
      propertyPath: m_LocalRotation.y
      value: -0
      objectReference: {fileID: 0}
    - target: {fileID: 7801416407409321203, guid: e4bb38044b8b6bf46b13621e0de119ba,
        type: 3}
      propertyPath: m_LocalRotation.z
      value: -0
      objectReference: {fileID: 0}
    - target: {fileID: 7801416407409321203, guid: e4bb38044b8b6bf46b13621e0de119ba,
        type: 3}
      propertyPath: m_LocalRotation.w
      value: 1
      objectReference: {fileID: 0}
    - target: {fileID: 7801416407409321203, guid: e4bb38044b8b6bf46b13621e0de119ba,
        type: 3}
      propertyPath: m_RootOrder
      value: 7
      objectReference: {fileID: 0}
    - target: {fileID: 7801416407409321203, guid: e4bb38044b8b6bf46b13621e0de119ba,
        type: 3}
      propertyPath: m_LocalEulerAnglesHint.x
      value: 0
      objectReference: {fileID: 0}
    - target: {fileID: 7801416407409321203, guid: e4bb38044b8b6bf46b13621e0de119ba,
        type: 3}
      propertyPath: m_LocalEulerAnglesHint.y
      value: 0
      objectReference: {fileID: 0}
    - target: {fileID: 7801416407409321203, guid: e4bb38044b8b6bf46b13621e0de119ba,
        type: 3}
      propertyPath: m_LocalEulerAnglesHint.z
      value: 0
      objectReference: {fileID: 0}
    - target: {fileID: 8044363366326489140, guid: e4bb38044b8b6bf46b13621e0de119ba,
        type: 3}
      propertyPath: m_IsActive
      value: 0
      objectReference: {fileID: 0}
    - target: {fileID: 900555640488022335, guid: e4bb38044b8b6bf46b13621e0de119ba,
        type: 3}
      propertyPath: m_IsActive
      value: 1
      objectReference: {fileID: 0}
    - target: {fileID: 8359191798248939102, guid: e4bb38044b8b6bf46b13621e0de119ba,
        type: 3}
      propertyPath: m_IsActive
      value: 0
      objectReference: {fileID: 0}
    - target: {fileID: 6278816031602691192, guid: e4bb38044b8b6bf46b13621e0de119ba,
        type: 3}
      propertyPath: m_AnchorMin.y
      value: 0.5
      objectReference: {fileID: 0}
    - target: {fileID: 6278816031602691192, guid: e4bb38044b8b6bf46b13621e0de119ba,
        type: 3}
      propertyPath: m_AnchorMax.y
      value: 0.5
      objectReference: {fileID: 0}
    - target: {fileID: 6278816031602691192, guid: e4bb38044b8b6bf46b13621e0de119ba,
        type: 3}
      propertyPath: m_SizeDelta.y
      value: 100
      objectReference: {fileID: 0}
    - target: {fileID: 6278816031602691192, guid: e4bb38044b8b6bf46b13621e0de119ba,
        type: 3}
      propertyPath: m_AnchorMin.x
      value: 0.5
      objectReference: {fileID: 0}
    - target: {fileID: 6278816031602691192, guid: e4bb38044b8b6bf46b13621e0de119ba,
        type: 3}
      propertyPath: m_AnchorMax.x
      value: 0.5
      objectReference: {fileID: 0}
    - target: {fileID: 6278816031602691192, guid: e4bb38044b8b6bf46b13621e0de119ba,
        type: 3}
      propertyPath: m_SizeDelta.x
      value: 592
      objectReference: {fileID: 0}
    - target: {fileID: 6278816031602691192, guid: e4bb38044b8b6bf46b13621e0de119ba,
        type: 3}
      propertyPath: m_LocalScale.x
      value: 0.5
      objectReference: {fileID: 0}
    - target: {fileID: 6278816031602691192, guid: e4bb38044b8b6bf46b13621e0de119ba,
        type: 3}
      propertyPath: m_LocalScale.y
      value: 1
      objectReference: {fileID: 0}
    - target: {fileID: 5657351781083441291, guid: e4bb38044b8b6bf46b13621e0de119ba,
        type: 3}
      propertyPath: m_IsActive
      value: 1
      objectReference: {fileID: 0}
    - target: {fileID: 1237245262032522443, guid: e4bb38044b8b6bf46b13621e0de119ba,
        type: 3}
      propertyPath: m_Alpha
      value: 0
      objectReference: {fileID: 0}
    - target: {fileID: 4723252807977763373, guid: e4bb38044b8b6bf46b13621e0de119ba,
        type: 3}
      propertyPath: m_Interactable
      value: 0
      objectReference: {fileID: 0}
    - target: {fileID: 4723252807977763373, guid: e4bb38044b8b6bf46b13621e0de119ba,
        type: 3}
      propertyPath: m_Alpha
      value: 0
      objectReference: {fileID: 0}
    - target: {fileID: 4461714763750580958, guid: e4bb38044b8b6bf46b13621e0de119ba,
        type: 3}
      propertyPath: m_IsActive
      value: 0
      objectReference: {fileID: 0}
    - target: {fileID: 6325194725930484262, guid: e4bb38044b8b6bf46b13621e0de119ba,
        type: 3}
      propertyPath: m_Alpha
      value: 0
      objectReference: {fileID: 0}
    m_RemovedComponents:
    - {fileID: 697419122510386666, guid: e4bb38044b8b6bf46b13621e0de119ba, type: 3}
  m_SourcePrefab: {fileID: 100100000, guid: e4bb38044b8b6bf46b13621e0de119ba, type: 3}
--- !u!114 &2056374353 stripped
MonoBehaviour:
  m_CorrespondingSourceObject: {fileID: 7396203487101193938, guid: a52dd0effddcbd14686be2d50b26a7ad,
    type: 3}
  m_PrefabInstance: {fileID: 477981605}
  m_PrefabAsset: {fileID: 0}
  m_GameObject: {fileID: 0}
  m_Enabled: 1
  m_EditorHideFlags: 0
  m_Script: {fileID: 11500000, guid: fe87c0e1cc204ed48ad3b37840f39efc, type: 3}
  m_Name: 
  m_EditorClassIdentifier: 
--- !u!114 &2073660676 stripped
MonoBehaviour:
  m_CorrespondingSourceObject: {fileID: 2762314189010693336, guid: a52dd0effddcbd14686be2d50b26a7ad,
    type: 3}
  m_PrefabInstance: {fileID: 477981605}
  m_PrefabAsset: {fileID: 0}
  m_GameObject: {fileID: 0}
  m_Enabled: 1
  m_EditorHideFlags: 0
  m_Script: {fileID: 11500000, guid: fe87c0e1cc204ed48ad3b37840f39efc, type: 3}
  m_Name: 
  m_EditorClassIdentifier: 
--- !u!114 &2139945842 stripped
MonoBehaviour:
  m_CorrespondingSourceObject: {fileID: 1301546940255701929, guid: a52dd0effddcbd14686be2d50b26a7ad,
    type: 3}
  m_PrefabInstance: {fileID: 477981605}
  m_PrefabAsset: {fileID: 0}
  m_GameObject: {fileID: 0}
  m_Enabled: 1
  m_EditorHideFlags: 0
  m_Script: {fileID: 11500000, guid: fe87c0e1cc204ed48ad3b37840f39efc, type: 3}
  m_Name: 
  m_EditorClassIdentifier: 
--- !u!1001 &4603360696724747984
PrefabInstance:
  m_ObjectHideFlags: 0
  serializedVersion: 2
  m_Modification:
    m_TransformParent: {fileID: 0}
    m_Modifications:
    - target: {fileID: 4603360695557262876, guid: ad55279d4c6d0444aa7330243e026749,
        type: 3}
      propertyPath: m_Name
      value: ObjectPooler
      objectReference: {fileID: 0}
    - target: {fileID: 4603360695557262878, guid: ad55279d4c6d0444aa7330243e026749,
        type: 3}
      propertyPath: m_LocalPosition.x
      value: 0
      objectReference: {fileID: 0}
    - target: {fileID: 4603360695557262878, guid: ad55279d4c6d0444aa7330243e026749,
        type: 3}
      propertyPath: m_LocalPosition.y
      value: 0
      objectReference: {fileID: 0}
    - target: {fileID: 4603360695557262878, guid: ad55279d4c6d0444aa7330243e026749,
        type: 3}
      propertyPath: m_LocalPosition.z
      value: 0
      objectReference: {fileID: 0}
    - target: {fileID: 4603360695557262878, guid: ad55279d4c6d0444aa7330243e026749,
        type: 3}
      propertyPath: m_LocalRotation.x
      value: 0
      objectReference: {fileID: 0}
    - target: {fileID: 4603360695557262878, guid: ad55279d4c6d0444aa7330243e026749,
        type: 3}
      propertyPath: m_LocalRotation.y
      value: 0
      objectReference: {fileID: 0}
    - target: {fileID: 4603360695557262878, guid: ad55279d4c6d0444aa7330243e026749,
        type: 3}
      propertyPath: m_LocalRotation.z
      value: 0
      objectReference: {fileID: 0}
    - target: {fileID: 4603360695557262878, guid: ad55279d4c6d0444aa7330243e026749,
        type: 3}
      propertyPath: m_LocalRotation.w
      value: 1
      objectReference: {fileID: 0}
    - target: {fileID: 4603360695557262878, guid: ad55279d4c6d0444aa7330243e026749,
        type: 3}
      propertyPath: m_RootOrder
      value: 5
      objectReference: {fileID: 0}
    - target: {fileID: 4603360695557262878, guid: ad55279d4c6d0444aa7330243e026749,
        type: 3}
      propertyPath: m_LocalEulerAnglesHint.x
      value: 0
      objectReference: {fileID: 0}
    - target: {fileID: 4603360695557262878, guid: ad55279d4c6d0444aa7330243e026749,
        type: 3}
      propertyPath: m_LocalEulerAnglesHint.y
      value: 0
      objectReference: {fileID: 0}
    - target: {fileID: 4603360695557262878, guid: ad55279d4c6d0444aa7330243e026749,
        type: 3}
      propertyPath: m_LocalEulerAnglesHint.z
      value: 0
      objectReference: {fileID: 0}
    m_RemovedComponents: []
  m_SourcePrefab: {fileID: 100100000, guid: ad55279d4c6d0444aa7330243e026749, type: 3}
--- !u!1001 &5595372908469875206
PrefabInstance:
  m_ObjectHideFlags: 0
  serializedVersion: 2
  m_Modification:
    m_TransformParent: {fileID: 0}
    m_Modifications:
    - target: {fileID: 4591643056174906724, guid: dbbfaf5af05d3df49bae6fd78affe0a6,
        type: 3}
      propertyPath: m_Name
      value: SceneController
      objectReference: {fileID: 0}
    - target: {fileID: 3598987246182761664, guid: dbbfaf5af05d3df49bae6fd78affe0a6,
        type: 3}
      propertyPath: m_LocalPosition.x
      value: 0
      objectReference: {fileID: 0}
    - target: {fileID: 3598987246182761664, guid: dbbfaf5af05d3df49bae6fd78affe0a6,
        type: 3}
      propertyPath: m_LocalPosition.y
      value: 0
      objectReference: {fileID: 0}
    - target: {fileID: 3598987246182761664, guid: dbbfaf5af05d3df49bae6fd78affe0a6,
        type: 3}
      propertyPath: m_LocalPosition.z
      value: 0
      objectReference: {fileID: 0}
    - target: {fileID: 3598987246182761664, guid: dbbfaf5af05d3df49bae6fd78affe0a6,
        type: 3}
      propertyPath: m_LocalRotation.x
      value: 0
      objectReference: {fileID: 0}
    - target: {fileID: 3598987246182761664, guid: dbbfaf5af05d3df49bae6fd78affe0a6,
        type: 3}
      propertyPath: m_LocalRotation.y
      value: 0
      objectReference: {fileID: 0}
    - target: {fileID: 3598987246182761664, guid: dbbfaf5af05d3df49bae6fd78affe0a6,
        type: 3}
      propertyPath: m_LocalRotation.z
      value: 0
      objectReference: {fileID: 0}
    - target: {fileID: 3598987246182761664, guid: dbbfaf5af05d3df49bae6fd78affe0a6,
        type: 3}
      propertyPath: m_LocalRotation.w
      value: 1
      objectReference: {fileID: 0}
    - target: {fileID: 3598987246182761664, guid: dbbfaf5af05d3df49bae6fd78affe0a6,
        type: 3}
      propertyPath: m_RootOrder
      value: 3
      objectReference: {fileID: 0}
    - target: {fileID: 3598987246182761664, guid: dbbfaf5af05d3df49bae6fd78affe0a6,
        type: 3}
      propertyPath: m_LocalEulerAnglesHint.x
      value: 0
      objectReference: {fileID: 0}
    - target: {fileID: 3598987246182761664, guid: dbbfaf5af05d3df49bae6fd78affe0a6,
        type: 3}
      propertyPath: m_LocalEulerAnglesHint.y
      value: 0
      objectReference: {fileID: 0}
    - target: {fileID: 3598987246182761664, guid: dbbfaf5af05d3df49bae6fd78affe0a6,
        type: 3}
      propertyPath: m_LocalEulerAnglesHint.z
      value: 0
      objectReference: {fileID: 0}
    m_RemovedComponents: []
  m_SourcePrefab: {fileID: 100100000, guid: dbbfaf5af05d3df49bae6fd78affe0a6, type: 3}
--- !u!1001 &8179487320050296297
PrefabInstance:
  m_ObjectHideFlags: 0
  serializedVersion: 2
  m_Modification:
    m_TransformParent: {fileID: 0}
    m_Modifications:
    - target: {fileID: 8239924136191807899, guid: 23a80208ae962824f88cbbdb1600cc69,
        type: 3}
      propertyPath: m_Name
      value: GameManager
      objectReference: {fileID: 0}
    - target: {fileID: 1726805753693469504, guid: 23a80208ae962824f88cbbdb1600cc69,
        type: 3}
      propertyPath: m_LocalPosition.x
      value: 0
      objectReference: {fileID: 0}
    - target: {fileID: 1726805753693469504, guid: 23a80208ae962824f88cbbdb1600cc69,
        type: 3}
      propertyPath: m_LocalPosition.y
      value: 0
      objectReference: {fileID: 0}
    - target: {fileID: 1726805753693469504, guid: 23a80208ae962824f88cbbdb1600cc69,
        type: 3}
      propertyPath: m_LocalPosition.z
      value: 0
      objectReference: {fileID: 0}
    - target: {fileID: 1726805753693469504, guid: 23a80208ae962824f88cbbdb1600cc69,
        type: 3}
      propertyPath: m_LocalRotation.x
      value: 0
      objectReference: {fileID: 0}
    - target: {fileID: 1726805753693469504, guid: 23a80208ae962824f88cbbdb1600cc69,
        type: 3}
      propertyPath: m_LocalRotation.y
      value: 0
      objectReference: {fileID: 0}
    - target: {fileID: 1726805753693469504, guid: 23a80208ae962824f88cbbdb1600cc69,
        type: 3}
      propertyPath: m_LocalRotation.z
      value: 0
      objectReference: {fileID: 0}
    - target: {fileID: 1726805753693469504, guid: 23a80208ae962824f88cbbdb1600cc69,
        type: 3}
      propertyPath: m_LocalRotation.w
      value: 1
      objectReference: {fileID: 0}
    - target: {fileID: 1726805753693469504, guid: 23a80208ae962824f88cbbdb1600cc69,
        type: 3}
      propertyPath: m_RootOrder
      value: 4
      objectReference: {fileID: 0}
    - target: {fileID: 1726805753693469504, guid: 23a80208ae962824f88cbbdb1600cc69,
        type: 3}
      propertyPath: m_LocalEulerAnglesHint.x
      value: 0
      objectReference: {fileID: 0}
    - target: {fileID: 1726805753693469504, guid: 23a80208ae962824f88cbbdb1600cc69,
        type: 3}
      propertyPath: m_LocalEulerAnglesHint.y
      value: 0
      objectReference: {fileID: 0}
    - target: {fileID: 1726805753693469504, guid: 23a80208ae962824f88cbbdb1600cc69,
        type: 3}
      propertyPath: m_LocalEulerAnglesHint.z
      value: 0
      objectReference: {fileID: 0}
    m_RemovedComponents: []
  m_SourcePrefab: {fileID: 100100000, guid: 23a80208ae962824f88cbbdb1600cc69, type: 3}
--- !u!1 &8179487320050296299 stripped
GameObject:
  m_CorrespondingSourceObject: {fileID: 8239924136191807899, guid: 23a80208ae962824f88cbbdb1600cc69,
    type: 3}
  m_PrefabInstance: {fileID: 8179487320050296297}
  m_PrefabAsset: {fileID: 0}
--- !u!114 &8179487320050296300
MonoBehaviour:
  m_ObjectHideFlags: 0
  m_CorrespondingSourceObject: {fileID: 0}
  m_PrefabInstance: {fileID: 0}
  m_PrefabAsset: {fileID: 0}
  m_GameObject: {fileID: 8179487320050296299}
  m_Enabled: 1
  m_EditorHideFlags: 0
  m_Script: {fileID: 11500000, guid: 7548febe4be0400eb4d08995d91a1b2d, type: 3}
  m_Name: 
  m_EditorClassIdentifier: 
